3 Data Preparation in Practice: From Raw Data to Insight – <span style='color:#0056B3'>Data Science Foundations and Machine Learning with R: From Data to Decisions</span>
…
The full-scale histogram shows that most values are concentrated between approximately 2 and 6 mm. The zoomed count scale reveals seven zero values and two unusually large values, one slightly above 30 mm and another close to 60 mm. A width of zero is physically impossible, while very large widths should be inspected together with the other dimensions before any preparation decision is made.

Before changing the data, we inspect the affected rows:

diamonds[
  diamonds$y == 0 | diamonds$y > 30,
  c("carat", "cut", "color", "clarity", "x", "y", "z", "price")
]
   # A tibble: 9 × 8
     carat cut       color clarity     x     y     z price
     <dbl> <ord>     <ord> <ord>   <dbl> <dbl> <dbl> <int>
   1  1    Very Good H     VS2      0      0    0     5139
   2  1.14 Fair      G     VS1      0      0    0     6381
   3  2    Premium   H     SI2      8.09  58.9  8.06 12210
   4  1.56 Ideal     G     VS2      0      0    0    12800
   5  1.2  Premium   D     VVS1     0      0    0    15686
   6  2.25 Premium   H     SI2      0      0    0    18034
   # ℹ 3 more rows
…
